<?xml version="1.0" encoding="utf-8"?>
<!-- Generator: Adobe Illustrator 18.1.1, SVG Export Plug-In . SVG Version: 6.00 Build 0)  -->
<svg version="1.1" id="Layer_1" xmlns="http://www.w3.org/2000/svg" xmlns:xlink="http://www.w3.org/1999/xlink" x="0px" y="0px"
	 viewBox="0 0 32.979 25.96" enable-background="new 0 0 32.979 25.96;" xml:space="preserve">
<path d="M32.474,13.477H0.505C0.226,13.477,0,13.254,0,12.979c0-0.275,0.226-0.498,0.505-0.498h31.968
	c0.279,0,0.505,0.223,0.505,0.498C32.979,13.254,32.752,13.477,32.474,13.477z"/>
<path d="M19.804,25.96c-0.129,0-0.259-0.049-0.358-0.146c-0.197-0.194-0.197-0.51,0-0.704l12.312-12.132
	L19.447,0.85c-0.197-0.194-0.197-0.51,0-0.704c0.197-0.194,0.517-0.194,0.714,0l12.669,12.48c0.095,0.094,0.147,0.22,0.147,0.353
	c0,0.132-0.054,0.258-0.147,0.352L20.161,25.813C20.063,25.911,19.934,25.96,19.804,25.96z"/>
</svg>
