<?xml version="1.0" encoding="iso-8859-1"?>
<!-- Generator: Adobe Illustrator 18.1.1, SVG Export Plug-In . SVG Version: 6.00 Build 0)  -->
<svg version="1.1" id="Layer_1" xmlns="http://www.w3.org/2000/svg" xmlns:xlink="http://www.w3.org/1999/xlink" x="0px" y="0px"
	 viewBox="0 0 62 62" style="enable-background:new 0 0 62 62;" xml:space="preserve">
<path d="M55.8,24.8c-3.424,0-6.2,2.775-6.2,6.2c0,3.424,2.776,6.2,6.2,6.2c3.424,0,6.2-2.776,6.2-6.2
	C62,27.576,59.224,24.8,55.8,24.8z M55.8,35.133c-2.283,0-4.133-1.851-4.133-4.133c0-2.283,1.851-4.133,4.133-4.133
	s4.133,1.851,4.133,4.133C59.933,33.283,58.083,35.133,55.8,35.133z M6.2,24.8C2.775,24.8,0,27.576,0,31c0,3.424,2.775,6.2,6.2,6.2
	c3.424,0,6.2-2.776,6.2-6.2C12.4,27.576,9.624,24.8,6.2,24.8z M6.2,35.133c-2.283,0-4.133-1.851-4.133-4.133
	c0-2.283,1.851-4.133,4.133-4.133s4.133,1.851,4.133,4.133C10.333,33.283,8.483,35.133,6.2,35.133z M31,0
	c-3.424,0-6.2,2.776-6.2,6.2c0,3.424,2.776,6.2,6.2,6.2s6.2-2.775,6.2-6.2C37.2,2.776,34.424,0,31,0z M31,10.334
	c-2.283,0-4.133-1.851-4.133-4.134c0-2.283,1.851-4.134,4.133-4.134c2.283,0,4.133,1.851,4.133,4.134
	C35.133,8.483,33.283,10.334,31,10.334z M31,49.6c-3.424,0-6.2,2.775-6.2,6.2c0,3.425,2.776,6.2,6.2,6.2s6.2-2.776,6.2-6.2
	C37.2,52.375,34.424,49.6,31,49.6z M31,59.933c-2.283,0-4.133-1.851-4.133-4.133c0-2.283,1.851-4.133,4.133-4.133
	c2.283,0,4.133,1.851,4.133,4.133C35.133,58.083,33.283,59.933,31,59.933z"/>
<path d="M21.037,14.731l-6.305,6.305c-0.386,0.387-0.386,1.015,0,1.401c0.387,0.386,1.015,0.386,1.401,0
	l6.305-6.306c0.386-0.386,0.386-1.014,0-1.401C22.05,14.345,21.423,14.345,21.037,14.731z M45.842,22.439
	c0.385,0.385,1.011,0.385,1.396,0c0.386-0.385,0.386-1.01,0-1.396l-6.28-6.281c-0.385-0.385-1.011-0.385-1.396,0
	c-0.386,0.386-0.386,1.011,0,1.396L45.842,22.439z M45.837,39.561l-6.299,6.281c-0.387,0.385-0.387,1.011,0,1.396
	c0.387,0.385,1.014,0.385,1.4,0l6.299-6.28c0.387-0.385,0.387-1.011,0-1.396C46.85,39.176,46.223,39.176,45.837,39.561z
	 M16.156,39.56c-0.386-0.385-1.01-0.385-1.394,0c-0.385,0.384-0.385,1.007,0,1.39l6.274,6.256c0.385,0.384,1.01,0.384,1.394,0
	c0.385-0.384,0.385-1.007,0-1.39L16.156,39.56z"/>
</svg>
