<?xml version="1.0" encoding="iso-8859-1"?>
<!-- Generator: Adobe Illustrator 18.1.1, SVG Export Plug-In . SVG Version: 6.00 Build 0)  -->
<svg version="1.1" id="Layer_1" xmlns="http://www.w3.org/2000/svg" xmlns:xlink="http://www.w3.org/1999/xlink" x="0px" y="0px"
	 viewBox="0 0 80 76" style="enable-background:new 0 0 80 76;" xml:space="preserve">
<path d="M69.572,51.239l-7.461,10.72l-5.265-4.321c-0.568-0.468-1.409-0.383-1.876,0.184
	c-0.468,0.569-0.385,1.411,0.185,1.876l6.381,5.238c0.24,0.198,0.539,0.304,0.845,0.304c0.06,0,0.121-0.004,0.183-0.013
	c0.368-0.051,0.699-0.253,0.912-0.559l8.285-11.905c0.42-0.604,0.272-1.435-0.333-1.856C70.823,50.48,69.993,50.633,69.572,51.239z"
	/>
<path d="M62.667,41.334c-0.971,0-1.917,0.1-2.844,0.255c1.557-2.257,2.82-4.748,3.741-7.431
	c1.881-0.864,3.103-2.724,3.103-4.824V24c0-1.284-0.48-2.528-1.333-3.5v-7.092c0.075-0.733,0.368-5.099-2.789-8.7
	C59.805,1.584,55.361,0,49.333,0S38.861,1.584,36.123,4.707c-1.913,2.183-2.557,4.641-2.752,6.407
	c-2.285-1.181-4.979-1.78-8.037-1.78c-13.852,0-14.659,11.806-14.667,12v6.105c-0.864,0.941-1.333,2.028-1.333,3.107v4.605
	c0,1.439,0.644,2.78,1.748,3.687c1.1,4.147,3.805,7.28,4.859,8.38v3.657c0,1.049-0.571,2.012-1.561,2.553l-8.871,5.564
	C2.111,60.846,0,64.402,0,68.271v5.063h18.667h2.667h32.139C56.141,75.013,59.288,76,62.667,76C72.224,76,80,68.224,80,58.667
	S72.224,41.334,62.667,41.334z M18.667,67.683v2.984h-16v-2.396c0-2.893,1.579-5.552,4.188-6.977l8.869-5.564
	c1.777-0.969,2.881-2.828,2.881-4.855v-4.788l-0.424-0.396c-0.035-0.032-3.577-3.378-4.624-7.94l-0.121-0.528L12.98,36.93
	C12.367,36.532,12,35.867,12,35.151v-4.605c0-0.48,0.327-1.051,0.895-1.565l0.439-0.396l-0.003-7.173
	C13.355,21.028,14.049,12,25.333,12c3.191,0,5.877,0.737,8,2.192V20.5C32.48,21.472,32,22.716,32,24v5.333
	c0,0.406,0.047,0.804,0.135,1.191c0.036,0.155,0.108,0.296,0.157,0.446c0.073,0.224,0.132,0.455,0.235,0.667
	c0.001,0.003,0.003,0.004,0.004,0.007c0.341,0.704,0.839,1.333,1.465,1.836c0.007,0.026,0.015,0.048,0.021,0.072
	c0.08,0.305,0.164,0.61,0.255,0.907l0.108,0.348c0.019,0.062,0.041,0.124,0.061,0.186c0.047,0.144,0.092,0.288,0.14,0.429
	c0.08,0.234,0.164,0.474,0.261,0.738c0.041,0.111,0.087,0.208,0.129,0.316c0.109,0.278,0.219,0.548,0.333,0.814
	c0.028,0.064,0.052,0.134,0.08,0.196l0.075,0.168c0.035,0.077,0.071,0.146,0.105,0.222c0.131,0.285,0.259,0.562,0.392,0.83
	c0.021,0.043,0.041,0.089,0.063,0.132c0.084,0.166,0.168,0.324,0.252,0.484c0.144,0.275,0.285,0.533,0.427,0.784
	c0.069,0.123,0.137,0.243,0.205,0.359c0.192,0.328,0.375,0.629,0.552,0.91c0.039,0.06,0.076,0.122,0.113,0.18
	c0.323,0.5,0.603,0.905,0.835,1.221c0.061,0.084,0.115,0.156,0.167,0.227c0.029,0.039,0.069,0.095,0.095,0.129v4.412
	c0,1.291-0.704,2.475-1.836,3.093l-3.528,1.924l-0.865,0.472l-7.501,4.092C21.068,59.232,18.667,63.278,18.667,67.683z
	 M21.333,70.667v-2.984c0-3.428,1.869-6.579,4.879-8.218l11.895-6.488c1.991-1.087,3.227-3.171,3.227-5.436v-5.357v-0.001
	l-0.259-0.309l-0.051-0.06c-0.003-0.004-0.085-0.104-0.22-0.28c-0.008-0.011-0.016-0.021-0.025-0.032
	c-0.071-0.092-0.153-0.204-0.248-0.335c-0.001-0.002-0.003-0.004-0.004-0.007c-0.199-0.276-0.448-0.635-0.725-1.067
	c-0.007-0.009-0.012-0.02-0.019-0.029c-0.131-0.206-0.269-0.427-0.411-0.663c-0.011-0.017-0.021-0.035-0.032-0.053
	c-0.301-0.505-0.621-1.077-0.94-1.71l-0.001-0.003c-0.169-0.339-0.339-0.697-0.504-1.069l0,0c-0.023-0.052-0.047-0.103-0.069-0.155
	l0,0c-0.073-0.166-0.147-0.341-0.221-0.521c-0.027-0.065-0.053-0.133-0.08-0.2c-0.069-0.175-0.14-0.351-0.215-0.552
	c-0.136-0.363-0.264-0.742-0.387-1.132l-0.073-0.237c-0.008-0.027-0.017-0.053-0.025-0.081c-0.125-0.421-0.245-0.852-0.347-1.295
	l-0.121-0.528l-0.455-0.293c-0.773-0.498-1.235-1.334-1.235-2.236V24c0-0.748,0.317-1.445,0.893-1.967L36,21.638v-8.304v-0.472
	l-0.036-0.028c-0.045-0.963,0.012-3.913,2.164-6.368c2.209-2.521,5.98-3.799,11.205-3.799c5.207,0,8.969,1.268,11.181,3.771
	c2.596,2.934,2.167,6.689,2.164,6.721l-0.012,8.479l0.44,0.397C63.683,22.555,64,23.252,64,24v5.333
	c0,1.164-0.763,2.183-1.896,2.532L61.44,32.07l-0.213,0.66c-0.892,2.775-2.163,5.337-3.779,7.617
	c-0.396,0.562-0.781,1.059-1.116,1.439L56,42.164v0.507c-0.336,0.14-0.659,0.306-0.983,0.465c-0.083,0.041-0.167,0.079-0.248,0.12
	c-0.292,0.151-0.576,0.31-0.857,0.475c-0.148,0.087-0.293,0.176-0.437,0.266c-0.256,0.161-0.511,0.324-0.757,0.499
	c-0.16,0.112-0.313,0.233-0.469,0.352c-0.385,0.291-0.757,0.597-1.116,0.918c-0.172,0.155-0.347,0.306-0.513,0.467
	c-0.191,0.185-0.373,0.379-0.555,0.572c-0.153,0.163-0.304,0.327-0.451,0.496c-0.176,0.203-0.351,0.407-0.517,0.616
	c-0.137,0.173-0.265,0.352-0.396,0.529c-0.277,0.379-0.539,0.768-0.787,1.17c-0.116,0.188-0.236,0.373-0.344,0.565
	c-0.135,0.238-0.256,0.482-0.379,0.725c-0.1,0.198-0.196,0.396-0.289,0.599c-0.111,0.243-0.219,0.485-0.317,0.733
	c-0.099,0.244-0.185,0.493-0.272,0.742c-0.101,0.289-0.199,0.58-0.284,0.877c-0.107,0.368-0.204,0.739-0.287,1.115
	c-0.041,0.19-0.075,0.384-0.109,0.577c-0.063,0.34-0.115,0.682-0.157,1.028c-0.021,0.172-0.043,0.344-0.059,0.519
	c-0.051,0.52-0.083,1.043-0.083,1.571c0,0.58,0.031,1.156,0.088,1.725c0.021,0.216,0.064,0.425,0.093,0.638
	c0.048,0.351,0.091,0.702,0.16,1.047c0.047,0.233,0.113,0.46,0.169,0.691c0.077,0.319,0.149,0.639,0.245,0.952
	c0.065,0.212,0.147,0.418,0.22,0.627c0.112,0.324,0.223,0.649,0.355,0.965c0.073,0.177,0.16,0.346,0.24,0.52
	c0.153,0.339,0.309,0.676,0.484,1.004c0.077,0.143,0.164,0.28,0.245,0.421c0.197,0.345,0.397,0.687,0.619,1.017
	c0.081,0.121,0.171,0.236,0.255,0.356c0.235,0.334,0.475,0.664,0.735,0.981c0.096,0.118,0.2,0.227,0.299,0.341
	c0.207,0.24,0.404,0.485,0.624,0.715H21.333V70.667z M62.667,73.334c-3.011,0-5.812-0.915-8.143-2.478
	c-0.455-0.304-0.884-0.634-1.296-0.981c-0.144-0.123-0.28-0.253-0.419-0.381c-0.263-0.239-0.517-0.484-0.76-0.739
	c-0.156-0.164-0.307-0.33-0.455-0.5c-0.219-0.252-0.424-0.512-0.624-0.777c-0.128-0.169-0.26-0.333-0.381-0.508
	c-0.295-0.428-0.572-0.868-0.82-1.324c-0.057-0.107-0.103-0.219-0.157-0.327c-0.195-0.381-0.376-0.768-0.537-1.165
	c-0.069-0.173-0.129-0.351-0.193-0.527c-0.125-0.349-0.24-0.704-0.34-1.063c-0.051-0.184-0.1-0.369-0.144-0.556
	c-0.089-0.38-0.159-0.765-0.217-1.153c-0.025-0.166-0.057-0.331-0.076-0.499C48.041,59.797,48,59.235,48,58.667
	c0-0.452,0.028-0.899,0.068-1.34c0.015-0.158,0.036-0.313,0.056-0.47c0.035-0.28,0.077-0.556,0.127-0.832
	c0.035-0.185,0.069-0.37,0.111-0.555c0.053-0.24,0.117-0.475,0.183-0.709c0.055-0.195,0.103-0.392,0.165-0.585
	c0.115-0.356,0.244-0.707,0.385-1.051c0.096-0.233,0.205-0.46,0.313-0.687c0.071-0.151,0.14-0.3,0.216-0.448
	c0.116-0.227,0.24-0.449,0.368-0.669c0.08-0.137,0.163-0.272,0.247-0.405c0.137-0.22,0.276-0.44,0.425-0.652
	c0.076-0.108,0.159-0.21,0.237-0.317c0.312-0.42,0.645-0.823,1-1.207c0.081-0.088,0.159-0.18,0.243-0.267
	c0.183-0.188,0.375-0.368,0.568-0.547c0.111-0.103,0.223-0.207,0.337-0.307c0.2-0.175,0.405-0.344,0.615-0.508
	c0.107-0.083,0.216-0.163,0.324-0.243c0.232-0.171,0.465-0.341,0.709-0.499c0.017-0.011,0.035-0.021,0.052-0.032
	c0.913-0.587,1.901-1.077,2.952-1.456c0.088-0.032,0.175-0.067,0.264-0.097l0.393-0.139C59.721,44.228,61.168,44,62.667,44
	c8.087,0,14.667,6.58,14.667,14.667C77.333,66.753,70.753,73.334,62.667,73.334z"/>
</svg>
